"Status","Name","Duration in ms","Description"
"passed","tests.ui.devrefresh.DevRefreshSupplier.testDevcRefresh","2486",""
"broken","tests.ui.devrefresh.DevRefreshSupplier.testDevcRefresh","5418",""
"skipped","tests.ui.devrefresh.DevRefreshSupplier.testDevcRefresh","1",""
"broken","tests.ui.devrefresh.DevRefreshSupplier.testDevcRefresh","65773",""
"passed","tests.ui.devrefresh.DevRefreshSupplier.testDevcRefresh","58",""
"passed","tests.ui.devrefresh.DevRefreshSupplier.testDevcRefresh","19160",""
"broken","tests.ui.devrefresh.DevRefreshSupplier.testDevcRefresh","65891",""
"broken","tests.ui.devrefresh.DevRefreshSupplier.testDevcRefresh","68917",""
"passed","tests.ui.devrefresh.DevRefreshSupplier.testDevcRefresh","50",""
"passed","tests.ui.devrefresh.DevRefreshSupplier.testDevcRefresh","59",""
"passed","ExtranetTest.extranetLoginTest","12097",""
"passed","tests.ui.devrefresh.DevRefreshSupplier.testDevcRefresh","10135",""
"passed","tests.ui.devrefresh.DevRefreshSupplier.testDevcRefresh","167",""
"passed","tests.ui.devrefresh.DevRefreshSupplier.testDevcRefresh","5185",""
"passed","tests.ui.devrefresh.DevRefreshSupplier.testDevcRefresh","78",""
"passed","tests.ui.devrefresh.DevRefreshSupplier.testDevcRefresh","6051",""
"passed","tests.ui.devrefresh.DevRefreshSupplier.testDevcRefresh","202",""
"passed","tests.ui.devrefresh.DevRefreshSupplier.testDevcRefresh","9369",""
"passed","tests.ui.devrefresh.DevRefreshSupplier.testDevcRefresh","171",""
"passed","tests.ui.devrefresh.DevRefreshSupplier.testDevcRefresh","114",""
