{
  "uid" : "ab17fc5a4eb3bca4b216b548c7f9fcbc",
  "name" : "timeline",
  "children" : [ {
    "name" : "ALT00894.local",
    "children" : [ {
      "name" : "35137@ALT00894.local.main(1)",
      "children" : [ {
        "name" : "testDevcRefresh",
        "uid" : "c577ba354f7e3e41",
        "parentUid" : "fbe934780919db386c5ad13620a2d527",
        "status" : "passed",
        "time" : {
          "start" : 1543592091463,
          "stop" : 1543592093949,
          "duration" : 2486
        },
        "flaky" : false,
        "parameters" : [ "Ticket Details", "/app/tickets#details/19394484", ".manage_tickets_modal" ]
      }, {
        "name" : "testDevcRefresh",
        "uid" : "2a9ec8ad37ec1819",
        "parentUid" : "fbe934780919db386c5ad13620a2d527",
        "status" : "broken",
        "time" : {
          "start" : 1543592269603,
          "stop" : 1543592275021,
          "duration" : 5418
        },
        "flaky" : false,
        "parameters" : [ "Warehouse Closures", "/v/warehouse/warehouse_quarter/manage", "" ]
      }, {
        "name" : "testDevcRefresh",
        "uid" : "7576ca9fa107e275",
        "parentUid" : "fbe934780919db386c5ad13620a2d527",
        "status" : "broken",
        "time" : {
          "start" : 1543592275025,
          "stop" : 1543592340798,
          "duration" : 65773
        },
        "flaky" : false,
        "parameters" : [ "Warehouse Closures", "/v/warehouse/warehouse_quarter/manage", "testme" ]
      }, {
        "name" : "testDevcRefresh",
        "uid" : "1b1753d2ca2bd223",
        "parentUid" : "fbe934780919db386c5ad13620a2d527",
        "status" : "passed",
        "time" : {
          "start" : 1543592128538,
          "stop" : 1543592128596,
          "duration" : 58
        },
        "flaky" : false,
        "parameters" : [ "Late Registration", "/v/order/order_management/index#alerts/late_registration_alerts", ".js-order-alerts" ]
      }, {
        "name" : "testDevcRefresh",
        "uid" : "759ff538b0c941c6",
        "parentUid" : "fbe934780919db386c5ad13620a2d527",
        "status" : "passed",
        "time" : {
          "start" : 1543592093959,
          "stop" : 1543592113119,
          "duration" : 19160
        },
        "flaky" : false,
        "parameters" : [ "Order Management Landing page", "/order_management.php", "#order_management,div.suppliersearch,div.om_button_wrap,table.regtable:first-of-type" ]
      }, {
        "name" : "testDevcRefresh",
        "uid" : "ac97d25a49f01c7a",
        "parentUid" : "fbe934780919db386c5ad13620a2d527",
        "status" : "broken",
        "time" : {
          "start" : 1543592197644,
          "stop" : 1543592263535,
          "duration" : 65891
        },
        "flaky" : false,
        "parameters" : [ "Inventory Alerts", "/v/inventory_management/inventory/alerts_app", ".main_content" ]
      }, {
        "name" : "testDevcRefresh",
        "uid" : "18ec3127f6ac41fb",
        "parentUid" : "fbe934780919db386c5ad13620a2d527",
        "status" : "broken",
        "time" : {
          "start" : 1543592128718,
          "stop" : 1543592197635,
          "duration" : 68917
        },
        "flaky" : false,
        "parameters" : [ "Inventory Management landing page", "/v/inventory_management/inventory/management_app", ".main_content" ]
      }, {
        "name" : "testDevcRefresh",
        "uid" : "e9961332e002ccd5",
        "parentUid" : "fbe934780919db386c5ad13620a2d527",
        "status" : "passed",
        "time" : {
          "start" : 1543592128663,
          "stop" : 1543592128713,
          "duration" : 50
        },
        "flaky" : false,
        "parameters" : [ "Unconfirmed Replacement parts", "/v/order/order_management/index#alerts/unconfirmed_replacement_part_alerts", ".js-order-alerts" ]
      }, {
        "name" : "testDevcRefresh",
        "uid" : "57d99bd5f14c310f",
        "parentUid" : "fbe934780919db386c5ad13620a2d527",
        "status" : "passed",
        "time" : {
          "start" : 1543592128600,
          "stop" : 1543592128659,
          "duration" : 59
        },
        "flaky" : false,
        "parameters" : [ "Late Replacement", "/v/order/order_management/index#alerts/late_replacement_part_alerts", ".js-order-alerts" ]
      }, {
        "name" : "testDevcRefresh",
        "uid" : "64927eaa073911c",
        "parentUid" : "fbe934780919db386c5ad13620a2d527",
        "status" : "passed",
        "time" : {
          "start" : 1543592118315,
          "stop" : 1543592128450,
          "duration" : 10135
        },
        "flaky" : false,
        "parameters" : [ "Order Alert Landing page", "/v/order/order_management/index", ".js-order-alerts" ]
      }, {
        "name" : "testDevcRefresh",
        "uid" : "c4bf5b34ec49fe0c",
        "parentUid" : "fbe934780919db386c5ad13620a2d527",
        "status" : "passed",
        "time" : {
          "start" : 1543592091171,
          "stop" : 1543592091338,
          "duration" : 167
        },
        "flaky" : false,
        "parameters" : [ "All Tickets", "/app/tickets#all_tickets", ".js-all-tickets .wfe_tab_content" ]
      }, {
        "name" : "testDevcRefresh",
        "uid" : "19543b2f9e058536",
        "parentUid" : "fbe934780919db386c5ad13620a2d527",
        "status" : "passed",
        "time" : {
          "start" : 1543592113124,
          "stop" : 1543592118309,
          "duration" : 5185
        },
        "flaky" : false,
        "parameters" : [ "Order export", "/v/order/export/index", ".js-export-button" ]
      }, {
        "name" : "testDevcRefresh",
        "uid" : "4d5fc9f2054aa879",
        "parentUid" : "fbe934780919db386c5ad13620a2d527",
        "status" : "passed",
        "time" : {
          "start" : 1543592128456,
          "stop" : 1543592128534,
          "duration" : 78
        },
        "flaky" : false,
        "parameters" : [ "Pending RMAs", "/v/order/order_management/index#alerts/pending_rma_alerts", ".js-order-alerts" ]
      }, {
        "name" : "testDevcRefresh",
        "uid" : "c77978e9ee4fd08",
        "parentUid" : "fbe934780919db386c5ad13620a2d527",
        "status" : "passed",
        "time" : {
          "start" : 1543592263544,
          "stop" : 1543592269595,
          "duration" : 6051
        },
        "flaky" : false,
        "parameters" : [ "Warehouse Hours", "/v/warehouse/warehouse_normal_hours/manage", ".wfe_card .week_row" ]
      }, {
        "name" : "testDevcRefresh",
        "uid" : "29a5ece24f2117b6",
        "parentUid" : "fbe934780919db386c5ad13620a2d527",
        "status" : "passed",
        "time" : {
          "start" : 1543592090958,
          "stop" : 1543592091160,
          "duration" : 202
        },
        "flaky" : false,
        "parameters" : [ "Supplier Entered Tickets", "/app/tickets#supplier_tickets", ".js-supplier-processing-tickets .wfe_tab_content" ]
      }, {
        "name" : "testDevcRefresh",
        "uid" : "980d8bf518f9b0ab",
        "parentUid" : "fbe934780919db386c5ad13620a2d527",
        "status" : "passed",
        "time" : {
          "start" : 1543592081391,
          "stop" : 1543592090760,
          "duration" : 9369
        },
        "flaky" : false,
        "parameters" : [ "Landing_Page", "/app/tickets", ".js-wayfair-tickets .wfe_tab_content,.tab_nav_header.margin_bottom_medium.is_active,div.main_content,.scorecard_wrap,div.main_content > div:nth-child(1) > div:nth-child(1)" ]
      }, {
        "name" : "testDevcRefresh",
        "uid" : "88c1eeac4c43c16a",
        "parentUid" : "fbe934780919db386c5ad13620a2d527",
        "status" : "passed",
        "time" : {
          "start" : 1543592090780,
          "stop" : 1543592090951,
          "duration" : 171
        },
        "flaky" : false,
        "parameters" : [ "Closed Tickets", "/app/tickets#closed_tickets", ".js-closed-tickets >.wfe_tab_content" ]
      }, {
        "name" : "testDevcRefresh",
        "uid" : "276dc47083e99895",
        "parentUid" : "fbe934780919db386c5ad13620a2d527",
        "status" : "passed",
        "time" : {
          "start" : 1543592091345,
          "stop" : 1543592091459,
          "duration" : 114
        },
        "flaky" : false,
        "parameters" : [ "Ticket Searching", "/app/tickets#search/purchase_order_number/101195256", ".js-search-result .wfe_tab_content" ]
      } ],
      "uid" : "fbe934780919db386c5ad13620a2d527"
    }, {
      "name" : "34173@ALT00894.local.main(1)",
      "children" : [ {
        "name" : "testDevcRefresh",
        "uid" : "da2d7c348b6de0ae",
        "parentUid" : "abd5058dc15b050d8b6cfe66eeeee8e4",
        "status" : "skipped",
        "time" : {
          "start" : 1543589144980,
          "stop" : 1543589144981,
          "duration" : 1
        },
        "flaky" : false,
        "parameters" : [ ]
      } ],
      "uid" : "abd5058dc15b050d8b6cfe66eeeee8e4"
    }, {
      "name" : "35047@ALT00894.local.main(1)",
      "children" : [ {
        "name" : "Verify extranet login",
        "uid" : "484305be06dea0a7",
        "parentUid" : "156ffb2cbb5270afee2c00e1a8d4c0aa",
        "status" : "passed",
        "time" : {
          "start" : 1543591712096,
          "stop" : 1543591724193,
          "duration" : 12097
        },
        "flaky" : false,
        "parameters" : [ ]
      } ],
      "uid" : "156ffb2cbb5270afee2c00e1a8d4c0aa"
    } ],
    "uid" : "477733928e9db7c44831e7dd33b61a22"
  } ]
}